%YAML 1.1
%TAG !u! tag:unity3d.com,2011:
--- !u!1045 &1
EditorBuildSettings:
  m_ObjectHideFlags: 0
  serializedVersion: 2
  m_Scenes:
  - enabled: 1
    path: Assets/Scenes/Splash.unity
    guid: 273decdb871e8e543a45b1157f719f39
  - enabled: 1
    path: Assets/Scenes/Level 1.unity
    guid: fa52dfe6b24697143b2c423593579f57
  m_configObjects: {}
